[
    "AADI",
    "AAL",
    "AAOI",
    "AAON",
    "AAPL",
    "ABCB",
    "ABCL",
    "ABNB",
    "ABOS",
    "ACAD",
    "ACB",
    "ACCD",
    "ACDC",
    "ACGL",
    "ACHC",
    "ACIC",
    "ACIW",
    "ACLS",
    "ACLX",
    "ACMR",
    "ACRS",
    "ACT",
    "ACTG",
    "ACVA",
    "ADBE",
    "ADEA",
    "ADI",
    "ADP",
    "ADPT",
    "ADSK",
    "ADTN",
    "ADUS",
    "ADVM",
    "AEHR",
    "AEIS",
    "AEP",
    "AFCG",
    "AFRM",
    "AFYA",
    "AGEN",
    "AGIO",
    "AGNC",
    "AGRX",
    "AGYS",
    "AHCO",
    "AIHS",
    "AIP",
    "AIRS",
    "AKAM",
    "AKRO",
    "ALDX",
    "ALEC",
    "ALGM",
    "ALGN",
    "ALGT",
    "ALHC",
    "ALKS",
    "ALKT",
    "ALLO",
    "ALNT",
    "ALNY",
    "ALPN",
    "ALRM",
    "ALRS",
    "ALTO",
    "ALTR",
    "ALVO",
    "ALVR",
    "ALXO",
    "AMAL",
    "AMAT",
    "AMBA",
    "AMCX",
    "AMD",
    "AMED",
    "AMGN",
    "AMKR",
    "AMLX",
    "AMNB",
    "AMPH",
    "AMPL",
    "AMRK",
    "AMRSQ",
    "AMSC",
    "AMSF",
    "AMSWA",
    "AMTX",
    "AMWD",
    "AMZN",
    "ANAB",
    "ANDE",
    "ANGI",
    "ANGO",
    "ANIK",
    "ANIP",
    "ANSS",
    "ANTX",
    "AOSL",
    "APA",
    "API",
    "APLD",
    "APLS",
    "APOG",
    "APP",
    "APPF",
    "APPN",
    "APPS",
    "ARBE",
    "ARCB",
    "ARCC",
    "ARCT",
    "ARDX",
    "ARGX",
    "ARHS",
    "ARKO",
    "ARM",
    "AROW",
    "ARQT",
    "ARRY",
    "ARTNA",
    "ARVLF",
    "ARVN",
    "ARWR",
    "ASLE",
    "ASML",
    "ASND",
    "ASO",
    "ASTE",
    "ASTH",
    "ASTR",
    "ASTS",
    "ASUR",
    "ATAI",
    "ATAT",
    "ATEC",
    "ATEX",
    "ATHXQ",
    "ATLX",
    "ATNI",
    "ATOM.US",
    "ATRA",
    "ATRC",
    "ATRI",
    "ATRO",
    "ATSG",
    "ATXS",
    "AUDC.US",
    "AUPH",
    "AURA",
    "AVAV",
    "AVDL",
    "AVDX",
    "AVGO",
    "AVIR",
    "AVNW",
    "AVO",
    "AVPT",
    "AVT",
    "AVTE",
    "AVXL",
    "AXGN",
    "AXNX",
    "AXON",
    "AXSM",
    "AY",
    "AYRO",
    "AYTU",
    "AZN",
    "AZPN",
    "AZTA",
    "BAND.US",
    "BANF",
    "BANR",
    "BASE",
    "BATRK",
    "BBIO",
    "BBSI",
    "BCPC",
    "BCRX",
    "BCYC",
    "BEAM",
    "BECN",
    "BELFB",
    "BFC",
    "BFST",
    "BGC",
    "BGFV",
    "BGNE",
    "BHF",
    "BHRB",
    "BIDU",
    "BIGC",
    "BIIB",
    "BILI",
    "BIOX",
    "BIRD",
    "BITF",
    "BJRI",
    "BKKT",
    "BKNG",
    "BKYI",
    "BL",
    "BLBD",
    "BLDP",
    "BLFS",
    "BLKB",
    "BLMN",
    "BLNK",
    "BLTE",
    "BLUE",
    "BLZE",
    "BMBL",
    "BMEA",
    "BMRC",
    "BMRN",
    "BNGO",
    "BNTX",
    "BOKF",
    "BOOM",
    "BOXL",
    "BPMC",
    "BPOP",
    "BRKL",
    "BRKR",
    "BRP",
    "BRY",
    "BRZE",
    "BSY",
    "BTDR",
    "BTMD",
    "BUSE",
    "BWMN",
    "BYND",
    "BZ",
    "BZUN",
    "CABA",
    "CAC",
    "CACC",
    "CAKE",
    "CALM",
    "CAMP",
    "CAMT",
    "CAN",
    "CAR",
    "CARA",
    "CARE",
    "CARG",
    "CART",
    "CASH",
    "CASS",
    "CASY",
    "CATC",
    "CATY",
    "CBRL",
    "CBSH",
    "CBUS",
    "CCAP",
    "CCB",
    "CCBG",
    "CCCS",
    "CCNE",
    "CCOI",
    "CCRN",
    "CCSI",
    "CD",
    "CDLX",
    "CDMO",
    "CDNA",
    "CDNS",
    "CDW",
    "CDXS",
    "CECO",
    "CELC",
    "CELH",
    "CENN",
    "CENT",
    "CENTA",
    "CENX",
    "CERE",
    "CERS",
    "CERT",
    "CEVA",
    "CFB",
    "CFFN",
    "CFLT",
    "CG",
    "CGBD",
    "CGC",
    "CGEM",
    "CGNT",
    "CGNX",
    "CHCO",
    "CHDN",
    "CHEF",
    "CHKP",
    "CHRD",
    "CHRS",
    "CHRW",
    "CHTR",
    "CHUY",
    "CHX",
    "CIFR",
    "CINF",
    "CLAR",
    "CLBK",
    "CLBT",
    "CLDX",
    "CLFD",
    "CLLS",
    "CLMT",
    "CLNE",
    "CLOV",
    "CLPT",
    "CLSK",
    "CMBM",
    "CMCO",
    "CMCSA",
    "CME",
    "CMPO",
    "CMPR",
    "CMPS",
    "CNDT",
    "CNOB",
    "CNSL",
    "CNTA",
    "CNXC",
    "CNXN",
    "COCO",
    "COCP",
    "CODX",
    "COGT",
    "COHU",
    "COIN",
    "COKE",
    "COLB",
    "COLL",
    "COLM",
    "COMM",
    "COO",
    "COOP",
    "CORT",
    "COST",
    "CPRT",
    "CPRX",
    "CRAI",
    "CRBP",
    "CRBU",
    "CRCT",
    "CRDO",
    "CRESY",
    "CRIS",
    "CRMD",
    "CRMT",
    "CRNC",
    "CRNT",
    "CRNX",
    "CRON",
    "CROX",
    "CRSP",
    "CRSR",
    "CRTO",
    "CRUS",
    "CRVL",
    "CRWD",
    "CSCO",
    "CSGP",
    "CSGS",
    "CSIQ",
    "CSTL",
    "CSWC",
    "CSWI",
    "CSX",
    "CTAS",
    "CTBI",
    "CTKB",
    "CTLP",
    "CTRM",
    "CTRN",
    "CTSH",
    "CUTR",
    "CVAC",
    "CVBF",
    "CVCO",
    "CVGI",
    "CVGW",
    "CVII",
    "CVLG",
    "CVLT",
    "CVRX",
    "CWST",
    "CXAI",
    "CYBR",
    "CYRX",
    "CYTK",
    "CZFS",
    "CZR",
    "DADA",
    "DAKT",
    "DASH.US",
    "DAVE",
    "DAWN",
    "DBX",
    "DCGO",
    "DCOM",
    "DCPH",
    "DDOG",
    "DENN",
    "DGII",
    "DGLY",
    "DH",
    "DHIL.US",
    "DIOD",
    "DJCO",
    "DJT",
    "DKNG",
    "DLO",
    "DLTR",
    "DMKPQ",
    "DMRC",
    "DNLI",
    "DNUT",
    "DOCU",
    "DOMO",
    "DORM",
    "DOX",
    "DOYU",
    "DRS",
    "DRVN",
    "DSGR",
    "DSKE",
    "DSP",
    "DUOL",
    "DVAX",
    "DXCM",
    "DXPE",
    "DYN",
    "EA",
    "EBAY",
    "EBC",
    "EBIXQ",
    "ECPG",
    "ECX",
    "EDIT",
    "EEFT",
    "EFSC",
    "EGAN",
    "EGBN",
    "EGRX",
    "EH",
    "EHTH",
    "ELVN",
    "EMBC",
    "EMLD",
    "ENLT",
    "ENPH",
    "ENSG",
    "ENTA",
    "ENTG",
    "ENVX",
    "EQIX",
    "ERIC",
    "ERIE",
    "ERII",
    "ESGR.US",
    "ESQ",
    "ESTA",
    "ETNB",
    "ETSY",
    "EVBG",
    "EVCM",
    "EVFM",
    "EVGO",
    "EVLV",
    "EWBC",
    "EWCZ",
    "EWTX",
    "EXAI",
    "EXAS",
    "EXC",
    "EXEL",
    "EXLS",
    "EXPE",
    "EXPI",
    "EXPO",
    "EXTR",
    "EYE",
    "EYPT",
    "EZPW",
    "FA",
    "FANG",
    "FARO",
    "FAST",
    "FATE",
    "FBMS",
    "FBNC",
    "FCBC",
    "FCEL",
    "FCFS",
    "FCNCA",
    "FDBC",
    "FDMT",
    "FDUS",
    "FELE",
    "FFBC",
    "FFIC",
    "FFIN",
    "FFIV",
    "FHB",
    "FI",
    "FIBK",
    "FIP",
    "FISI",
    "FITB",
    "FIVE",
    "FIVN",
    "FIZZ",
    "FLEX",
    "FLGT",
    "FLIC",
    "FLL",
    "FLNC",
    "FLWS",
    "FLYW",
    "FMBH",
    "FMNB",
    "FNGR",
    "FNKO",
    "FOLD",
    "FORM",
    "FORR",
    "FOSL",
    "FOX",
    "FOXA",
    "FOXF",
    "FRHC",
    "FRME",
    "FROG",
    "FRPT",
    "FRSH",
    "FRSX",
    "FSBW",
    "FSLR",
    "FTDR",
    "FTNT",
    "FULC",
    "FULT",
    "FUTU",
    "FWONA",
    "FWONK",
    "FWRD",
    "FWRG",
    "FYBR",
    "GABC",
    "GAIN",
    "GAMB",
    "GAN",
    "GASS",
    "GBDC",
    "GCMG",
    "GCT",
    "GDEN",
    "GDRX",
    "GDS",
    "GDYN",
    "GEHC",
    "GEN",
    "GEVO",
    "GFS",
    "GGAL",
    "GH",
    "GHRS",
    "GIII",
    "GILD",
    "GILT",
    "GLBE",
    "GLBS",
    "GLDD",
    "GLNG",
    "GLPG",
    "GLPI",
    "GLRE",
    "GMAB.US",
    "GNLX",
    "GNTX",
    "GO",
    "GOCO",
    "GOEV",
    "GOGL.US",
    "GOGO",
    "GOOG",
    "GOOGL",
    "GOSS",
    "GPCR",
    "GPRE",
    "GPRO",
    "GRAB",
    "GRFS",
    "GRMN",
    "GRPN",
    "GRVY",
    "GRWG",
    "GSBC",
    "GSHD",
    "GSM",
    "GT",
    "GTLB",
    "GTX.US",
    "HA",
    "HAFC",
    "HAIN",
    "HALO",
    "HAS",
    "HAYN",
    "HBAN",
    "HBNC",
    "HCAT",
    "HCKT",
    "HCM",
    "HCP.US",
    "HCSG",
    "HCVI",
    "HDSN",
    "HEAR",
    "HEES",
    "HELE",
    "HFWA",
    "HIBB",
    "HIFS",
    "HIMX",
    "HLMN",
    "HLNE",
    "HLVX",
    "HMST",
    "HNRG",
    "HOFT",
    "HOLI",
    "HOLX",
    "HON",
    "HONE",
    "HOOD",
    "HOPE",
    "HPK",
    "HQY",
    "HRMY",
    "HROW",
    "HRZN",
    "HSAI",
    "HSIC",
    "HSII",
    "HST",
    "HSTM",
    "HTBK",
    "HTGMQ",
    "HTHT",
    "HTLD",
    "HTLF",
    "HUBG",
    "HURN",
    "HUT",
    "HWC",
    "HWKN",
    "HYFM",
    "HYZN",
    "IAC",
    "IART",
    "IAS",
    "IBCP",
    "IBEX",
    "IBKR",
    "IBOC",
    "IBRX",
    "IBTX",
    "ICFI",
    "ICHR",
    "ICLK",
    "ICLR",
    "ICUI",
    "IDCC",
    "IDEX",
    "IDXX",
    "IDYA",
    "IEP",
    "IESC",
    "IFRX",
    "IGIC",
    "IGMS",
    "IHRT",
    "IIIV",
    "ILMN",
    "IMAB",
    "IMCR",
    "IMKTA",
    "IMMR",
    "IMNM",
    "IMRX",
    "IMTX",
    "IMVT",
    "IMXI",
    "INBK",
    "INBX",
    "INCY",
    "INDB",
    "INDI",
    "INFN",
    "INGN",
    "INKT",
    "INMD",
    "INO",
    "INOD",
    "INSE",
    "INSM",
    "INTA",
    "INTC",
    "INTU",
    "INVA",
    "INVE",
    "INVZ",
    "IONS",
    "IOSP",
    "IOVA",
    "IPAR",
    "IPGP",
    "IPX",
    "IQ.US",
    "IRBT",
    "IRDM",
    "IRMD",
    "IRON",
    "IRTC",
    "IRWD",
    "ISRG",
    "ITCI",
    "ITOS",
    "ITRI",
    "ITRN",
    "IVCA",
    "IVVD",
    "IZEA",
    "JACK",
    "JAGX",
    "JAKK",
    "JAMF",
    "JANX",
    "JAZZ",
    "JBHT",
    "JBLU",
    "JBSS",
    "JD.US",
    "JFU",
    "JJSF",
    "JKHY",
    "JOUT",
    "JRVR",
    "JTKWY",
    "JYNT",
    "KALU",
    "KALV",
    "KC",
    "KDP",
    "KE",
    "KELYA.US",
    "KFRC",
    "KHC",
    "KIDS",
    "KLAC",
    "KLIC",
    "KLTR",
    "KLXE",
    "KNDI",
    "KNSA",
    "KNSL",
    "KRNL",
    "KRNT",
    "KRNY",
    "KROS",
    "KRT",
    "KRUS",
    "KRYS",
    "KTOS",
    "KURA",
    "KYMR",
    "LAMR",
    "LANC",
    "LAND",
    "LASR",
    "LAUR",
    "LAZR",
    "LBAI",
    "LBPH",
    "LBRDA",
    "LBRDK",
    "LBTYA",
    "LBTYK",
    "LCID",
    "LECO",
    "LEGH",
    "LEGN",
    "LESL",
    "LFCR",
    "LFMD",
    "LFST",
    "LFUS",
    "LGIH",
    "LGND",
    "LI",
    "LILA",
    "LILAK",
    "LIN",
    "LINC",
    "LIND",
    "LITE",
    "LIVN",
    "LKFN",
    "LKQ",
    "LLYVA",
    "LLYVK",
    "LMAT",
    "LMB",
    "LMNR.US",
    "LNT",
    "LNTH",
    "LNW",
    "LNZA",
    "LOB",
    "LOCO",
    "LOGI",
    "LOPE",
    "LOT",
    "LOVE",
    "LPLA.US",
    "LPRO",
    "LPSN",
    "LQDA",
    "LQDT",
    "LRCX",
    "LSCC",
    "LSEA",
    "LSTR",
    "LSXMA",
    "LSXMK",
    "LULU",
    "LUNA.US",
    "LUNG",
    "LWLG",
    "LXRX",
    "LYFT",
    "LYTS",
    "LZ",
    "MACK",
    "MAMA",
    "MANH",
    "MAR",
    "MARA",
    "MARK",
    "MASI",
    "MASS",
    "MAT",
    "MATW",
    "MAXN",
    "MBIN",
    "MBLY",
    "MBUU",
    "MBWM",
    "MCFT",
    "MCHP",
    "MCRB",
    "MCRI",
    "MDB",
    "MDGL",
    "MDLZ",
    "MDRX",
    "MDXG",
    "MEDP",
    "MELI",
    "MERC",
    "META",
    "METC",
    "MFLTY",
    "MGEE",
    "MGNI",
    "MGNX",
    "MGPI",
    "MGRC",
    "MGTX",
    "MIDD.US",
    "MIGI",
    "MIRM",
    "MITA",
    "MITK",
    "MKSI",
    "MKTX",
    "MLAB",
    "MLCO",
    "MLKN",
    "MLTX",
    "MLYS",
    "MMSI",
    "MMYT",
    "MNDY",
    "MNKD",
    "MNRO",
    "MNST",
    "MNTK",
    "MODV",
    "MOMO",
    "MOND",
    "MOR.US",
    "MORF",
    "MORN",
    "MPAA",
    "MPB",
    "MPWR",
    "MQ",
    "MRCY",
    "MRNA",
    "MRTN",
    "MRUS",
    "MRVI",
    "MRVL",
    "MSBI",
    "MSEX",
    "MSFT",
    "MSTR",
    "MTCH",
    "MTLS",
    "MTSI",
    "MTTR",
    "MU",
    "MURA",
    "MVIS",
    "MVST",
    "MYGN",
    "MYRG",
    "NAAS",
    "NAMS",
    "NARI",
    "NATH",
    "NAVI",
    "NBEVQ",
    "NBIX",
    "NBN",
    "NBTB",
    "NCNO",
    "NDAQ",
    "NDSN",
    "NECB",
    "NEGG",
    "NEO.US",
    "NEOG",
    "NEWT",
    "NEXN",
    "NEXT",
    "NFBK",
    "NFE",
    "NFLX",
    "NGMS",
    "NICE",
    "NIU",
    "NKLA",
    "NKSH",
    "NKTR",
    "NMFC",
    "NMIH",
    "NN",
    "NNDM",
    "NNOX",
    "NOVT",
    "NRC",
    "NRDE",
    "NRDS",
    "NRIM",
    "NRIX",
    "NSIT.US",
    "NSSC",
    "NSTGQ",
    "NTAP",
    "NTCT",
    "NTDOY",
    "NTES",
    "NTGR",
    "NTLA",
    "NTNX",
    "NTRA",
    "NTRS",
    "NUVL",
    "NUWE",
    "NVAX",
    "NVCR",
    "NVCT",
    "NVDA",
    "NVEC",
    "NVEE",
    "NVEI",
    "NVMI",
    "NVTS",
    "NWBI",
    "NWE",
    "NWL",
    "NWLI",
    "NWPX.US",
    "NWS",
    "NWSA",
    "NXPI",
    "NXST",
    "NXT.US",
    "NYMT",
    "OABI",
    "OB",
    "OBT",
    "OCFC",
    "OCGN",
    "OCSL",
    "OCUL",
    "ODD",
    "ODFL",
    "ODP",
    "OFIX",
    "OFLX",
    "OGI",
    "OKTA",
    "OLED",
    "OLK",
    "OLLI",
    "OLMA",
    "OLPX",
    "OM",
    "OMAB",
    "OMCL",
    "ON",
    "ONB",
    "ONEW",
    "OPCH",
    "OPEN",
    "OPK",
    "OPRA",
    "OPRT",
    "OPRX",
    "ORGN",
    "ORIC",
    "ORLY",
    "ORTX.CVR",
    "OSBC",
    "OSIS",
    "OSPN",
    "OSW",
    "OTLY",
    "OTTR",
    "OZK",
    "OZON",
    "PAA",
    "PAAS",
    "PACB",
    "PAGP",
    "PAHC",
    "PANL",
    "PARA",
    "PARAA",
    "PATK",
    "PAX",
    "PAYO",
    "PAYS",
    "PAYX",
    "PBPB",
    "PBYI",
    "PCAR",
    "PCH",
    "PCT.US",
    "PCTY",
    "PCVX",
    "PDCO",
    "PDD",
    "PDFS",
    "PDLB",
    "PDSB",
    "PEBO",
    "PECO",
    "PEGA",
    "PEGR",
    "PENN",
    "PEP",
    "PERI",
    "PETQ",
    "PETS.US",
    "PFBC",
    "PFC",
    "PFG",
    "PGC",
    "PGNY",
    "PGY",
    "PHAT",
    "PHUN",
    "PHVS",
    "PI",
    "PINC",
    "PKOH",
    "PLAB",
    "PLAO",
    "PLAY",
    "PLCE",
    "PLL",
    "PLMR",
    "PLPC",
    "PLRX",
    "PLTK",
    "PLUG",
    "PLUS",
    "PLXS",
    "PLYA",
    "PMTS",
    "PNFP",
    "PNTG",
    "PODD",
    "POOL",
    "POWI",
    "POWL",
    "PPBI",
    "PPC",
    "PR",
    "PRAA",
    "PRCH",
    "PRCT",
    "PRDO",
    "PRFT",
    "PRGS",
    "PRLH",
    "PRME",
    "PROK",
    "PRQR",
    "PRTA",
    "PRTS",
    "PRVA",
    "PSEC",
    "PSMT",
    "PSNY",
    "PTC",
    "PTCT",
    "PTEN",
    "PTGX",
    "PTLO",
    "PTON",
    "PTRAQ",
    "PTVE",
    "PUBM",
    "PWP",
    "PYCR",
    "PYPL",
    "PZZA",
    "QCOM",
    "QCRH",
    "QDEL",
    "QFIN",
    "QIWI",
    "QLGN",
    "QLYS",
    "QNST",
    "QRTEA",
    "QRVO",
    "QTRX",
    "QTTOY",
    "QURE",
    "RAPT",
    "RARE.US",
    "RBC",
    "RBCAA",
    "RCEL",
    "RCKT",
    "RCM",
    "RCMT",
    "RDFN",
    "RDNT",
    "RDUS",
    "RDWR",
    "REAL",
    "REE.US",
    "REFI",
    "REG",
    "REGN",
    "RELL",
    "RELY",
    "RENT",
    "REPL",
    "REYN",
    "RGCO",
    "RGEN",
    "RGLD",
    "RGNX",
    "RGP",
    "RICK",
    "RIGL",
    "RILY",
    "RIOT",
    "RIVN",
    "RKLB",
    "RLAY",
    "RMBL",
    "RMBS",
    "RMR",
    "RNA",
    "RNW",
    "ROAD",
    "ROCK",
    "ROIC",
    "ROIV",
    "ROKU",
    "ROOT",
    "ROP",
    "ROST",
    "RPAY",
    "RPD",
    "RPHM",
    "RPRX",
    "RPTX",
    "RRGB",
    "RRR",
    "RUM",
    "RUN",
    "RUSHA",
    "RUSHB.US",
    "RVMD",
    "RVNC",
    "RWAY",
    "RXRX",
    "RXST",
    "RYAAY",
    "RYTM",
    "SABR",
    "SAFT",
    "SAGE",
    "SAIA",
    "SAIC",
    "SANA",
    "SANM",
    "SASR",
    "SATS",
    "SAVA",
    "SBAC",
    "SBCF",
    "SBGI",
    "SBLK",
    "SBNY",
    "SBRA",
    "SBSI",
    "SBUX",
    "SCHL",
    "SCLX",
    "SCPH",
    "SCPX",
    "SCRM",
    "SCSC",
    "SCVL",
    "SDA",
    "SDCCQ",
    "SDGR",
    "SEDG",
    "SEIC",
    "SENEA",
    "SFIX",
    "SFM",
    "SFNC",
    "SFTGQ",
    "SFWL",
    "SG",
    "SGH",
    "SGML",
    "SGMO",
    "SGRY",
    "SHBI",
    "SHC",
    "SHCR",
    "SHEN",
    "SHIP",
    "SHLS",
    "SHOO",
    "SHYF",
    "SIBN",
    "SIGA",
    "SIGI",
    "SILC",
    "SILK",
    "SIMO",
    "SINT",
    "SIRI",
    "SITM",
    "SIVBQ",
    "SKIN",
    "SKWD",
    "SKYT",
    "SKYW",
    "SLAB",
    "SLAM",
    "SLGN",
    "SLM",
    "SLNA",
    "SLP",
    "SLRC",
    "SLRN",
    "SMBC",
    "SMCI",
    "SMLR",
    "SMPL",
    "SMTC",
    "SMTI",
    "SNBR",
    "SNCY",
    "SNDL",
    "SNDX",
    "SNEX",
    "SNPS",
    "SNY",
    "SOFI",
    "SOLO",
    "SONO",
    "SP",
    "SPFI",
    "SPNS",
    "SPOK",
    "SPRY",
    "SPSC",
    "SPT",
    "SPTN",
    "SPWH",
    "SPWR",
    "SRAD",
    "SRCE",
    "SRCL",
    "SRDX",
    "SRPT",
    "SRRK",
    "SSNC",
    "SSP.US",
    "SSRM",
    "SSSS",
    "SSYS.US",
    "STAA",
    "STBA",
    "STEP",
    "STER",
    "STGW",
    "STHO",
    "STLD",
    "STNE",
    "STOK",
    "STRA",
    "STRL.US",
    "STX.US",
    "SUNWQ",
    "SUPN",
    "SVC",
    "SVRA",
    "SWAV",
    "SWBI",
    "SWKS",
    "SWTX",
    "SYBT",
    "SYM",
    "SYNA",
    "TARS",
    "TASK",
    "TAST",
    "TBBK",
    "TBLA",
    "TBLT",
    "TBPH",
    "TBRG",
    "TCBI",
    "TCBK",
    "TCMD",
    "TCOM.CH",
    "TCPC",
    "TCX",
    "TEAM",
    "TECH",
    "TELA",
    "TELL",
    "TENB",
    "TER",
    "TERN",
    "TFIN",
    "TFSL",
    "TGTX",
    "THFF",
    "THRM",
    "THRY",
    "TIGR",
    "TILE",
    "TIPT",
    "TITN",
    "TLRY",
    "TMCI",
    "TMDX",
    "TMUS",
    "TNDM",
    "TNGX",
    "TOON",
    "TOP.US",
    "TOPS",
    "TORO",
    "TOWN",
    "TPG",
    "TPIC",
    "TRDA",
    "TREE",
    "TRIN",
    "TRIP",
    "TRMB",
    "TRMK",
    "TRNS",
    "TROW",
    "TRS",
    "TRST",
    "TRUP",
    "TRVG",
    "TRVN",
    "TSBK",
    "TSCO",
    "TSEM",
    "TSLA",
    "TSPH",
    "TSVT",
    "TTCFQ",
    "TTD",
    "TTEC",
    "TTEK",
    "TTGT",
    "TTMI",
    "TTNP",
    "TTWO",
    "TVTX",
    "TW",
    "TWKS",
    "TWOU",
    "TWST",
    "TXG",
    "TXN",
    "TXRH",
    "TYRA",
    "TZOO",
    "UAL",
    "UBSI",
    "UCBI",
    "UCTT",
    "UDMY",
    "UEIC",
    "UFCS",
    "UFPI",
    "UFPT",
    "UHAL",
    "UHAL.B",
    "ULBI",
    "ULCC",
    "ULH",
    "ULTA",
    "UMBF",
    "UNIT",
    "UONE",
    "UPBD",
    "UPLD",
    "UPST",
    "UPWK",
    "URBN",
    "URGN",
    "USEA",
    "USLM",
    "UTHR",
    "UTMD",
    "UVSP",
    "VABK",
    "VBIV",
    "VBTX",
    "VC",
    "VCEL",
    "VCTR",
    "VCYT",
    "VECO",
    "VERA",
    "VERU",
    "VERV",
    "VERX",
    "VFS",
    "VIAV",
    "VICR",
    "VIR",
    "VIRT",
    "VISL",
    "VITL",
    "VLY",
    "VMEO",
    "VNDA",
    "VNET",
    "VNOM",
    "VOD",
    "VOXX",
    "VRCA",
    "VRDN",
    "VRM",
    "VRNA",
    "VRNS",
    "VRNT",
    "VRRM",
    "VRSK",
    "VRSN",
    "VRTX",
    "VSAT",
    "VSEC",
    "VTGN",
    "VTNR",
    "VTRS",
    "VTRU",
    "VTYX",
    "VUZI",
    "VXRT",
    "WABC",
    "WAFD",
    "WALD",
    "WASH",
    "WATT",
    "WB",
    "WBA",
    "WBD",
    "WDAY",
    "WDC",
    "WDFC",
    "WEN",
    "WERN",
    "WEST",
    "WEWKQ",
    "WFRD",
    "WIMI",
    "WINA",
    "WING",
    "WIRE",
    "WISH",
    "WIX",
    "WKHS",
    "WKME",
    "WLDN",
    "WMG",
    "WOLF",
    "WOOF",
    "WRLD",
    "WSBC",
    "WSBF",
    "WSC",
    "WSFS",
    "WTFC",
    "WTW",
    "WVE",
    "WW",
    "WWD",
    "WYNN",
    "XEL",
    "XELA",
    "XELAP",
    "XENE",
    "XMTR",
    "XNCR",
    "XNET",
    "XP",
    "XPEL",
    "XRAY",
    "XRX",
    "XTIA",
    "XXII",
    "YMAB",
    "YNDX",
    "YORW.US",
    "YY",
    "Z",
    "ZBRA",
    "ZD",
    "ZEUS",
    "ZG",
    "ZI",
    "ZIMV",
    "ZION",
    "ZLAB",
    "ZM",
    "ZNTL",
    "ZS",
    "ZUMZ",
    "ZURA",
    "ZVRA",
    "ZYME"
]
